mp01 – STA 9750 2024 Submission Material
…
Task 6: Farebox Recovery Among Major Systems

Which transit system (agency and mode) had the most UPT in 2022?

MTSUPT <- USAGE_AND_FINANCIALS |>
  group_by(Agency, Mode) |>
  summarize(mosttsupt = sum(UPT, na.rm = TRUE)) |>
  arrange(desc(mosttsupt))

`summarise()` has grouped output by 'Agency'. You can override using the
`.groups` argument.

print(MTSUPT)

# A tibble: 1,129 × 3
# Groups:   Agency [525]
   Agency                                                   Mode       mosttsupt
   <chr>                                                    <chr>          <dbl>
 1 MTA New York City Transit                                Heavy Rail    1.79e9
 2 MTA New York City Transit                                Bus           4.59e8
 3 Los Angeles County Metropolitan Transportation Authority Bus           1.94e8
 4 Chicago Transit Authority                                Bus           1.40e8
 5 New Jersey Transit Corporation                           Bus           1.13e8
 6 Chicago Transit Authority                                Heavy Rail    1.04e8
 7 MTA Bus Company                                          Bus           1.00e8
 8 Washington Metropolitan Area Transit Authority           Heavy Rail    9.84e7
 9 Southeastern Pennsylvania Transportation Authority       Bus           9.66e7
10 Washington Metropolitan Area Transit Authority           Bus           8.99e7
# ℹ 1,119 more rows
…
colnames(USAGE_AND_FINANCIALS)[colnames(USAGE_AND_FINANCIALS) == "Total Fares"] <- "Total_Fares"

highest_farebox <- USAGE_AND_FINANCIALS |>
  filter( UPT >= 400000) |>
  mutate(farebox_rate = Total_Fares/Expenses) |> 
  group_by(Agency, Mode) |>
  summarize(highest_ratio = max (farebox_rate)) |>
  arrange(desc(highest_ratio))

`summarise()` has grouped output by 'Agency'. You can override using the
`.groups` argument.

print(highest_farebox)

# A tibble: 146 × 3
# Groups:   Agency [112]
   Agency                                                    Mode  highest_ratio
   <chr>                                                     <chr>         <dbl>
 1 Anaheim Transportation Network                            Bus           0.865
 2 City of Gainesville, FL                                   Bus           0.548
 3 MTA New York City Transit                                 Heav…         0.435
 4 Massachusetts Bay Transportation Authority                Heav…         0.375
 5 Woods Hole, Martha's Vineyard and Nantucket Steamship Au… Ferr…         0.335
 6 Metro-North Commuter Railroad Company, dba: MTA Metro-No… Comm…         0.331
 7 Centre Area Transportation Authority                      Bus           0.324
 8 MTA Long Island Rail Road                                 Comm…         0.286
 9 Southeastern Pennsylvania Transportation Authority        Heav…         0.253
10 Regional Transportation Commission of Southern Nevada     Bus           0.252
# ℹ 136 more rows
…
Which transit system (agency and mode) has the lowest expenses per UPT?

low_expense_UPT <- USAGE_AND_FINANCIALS |>
  filter( UPT >= 400000) |>
  mutate(exp_p_upt = Expenses/UPT) |>
  group_by(Agency, Mode) |>
  summarize(lowest_exp_p_upt = min(exp_p_upt)) |>
  arrange(lowest_exp_p_upt)

`summarise()` has grouped output by 'Agency'. You can override using the
`.groups` argument.

print(low_expense_UPT)

# A tibble: 146 × 3
# Groups:   Agency [112]
   Agency                                                 Mode  lowest_exp_p_upt
   <chr>                                                  <chr>            <dbl>
 1 Anaheim Transportation Network                         Bus               12.8
 2 University of Georgia                                  Bus               14.9
 3 University of Michigan Parking and Transportation Ser… Bus               16.2
 4 Town of Blacksburg                                     Bus               17.5
 5 Ames Transit Agency                                    Bus               21.5
 6 Centre Area Transportation Authority                   Bus               23.5
 7 MTA New York City Transit                              Heav…             31.1
 8 Greater Lafayette Public Transportation Corporation    Bus               31.5
 9 San Diego Metropolitan Transit System                  Ligh…             31.6
10 Champaign-Urbana Mass Transit District                 Bus               39.8
# ℹ 136 more rows
…
Which transit system (agency and mode) has the highest total fares per UPT?

high_fare_UPT <- USAGE_AND_FINANCIALS |>
  filter(UPT >= 400000) |>
  mutate(totalfares_p_upt = (Total_Fares/UPT)) |>
  group_by(Agency, Mode) |>
  summarize(high_fare_p_upt = max(totalfares_p_upt)) |>
  arrange(desc(high_fare_p_upt))

`summarise()` has grouped output by 'Agency'. You can override using the
`.groups` argument.

print(high_fare_UPT)

# A tibble: 146 × 3
# Groups:   Agency [112]
   Agency                                                  Mode  high_fare_p_upt
   <chr>                                                   <chr>           <dbl>
 1 New Jersey Transit Corporation                          Bus             536. 
 2 Northeast Illinois Regional Commuter Railroad Corporat… Comm…           265. 
 3 Metro-North Commuter Railroad Company, dba: MTA Metro-… Comm…           161. 
 4 New Jersey Transit Corporation                          Comm…           119. 
 5 MTA New York City Transit                               Comm…           112. 
 6 Massachusetts Bay Transportation Authority              Bus             107. 
 7 Massachusetts Bay Transportation Authority              Comm…            84.4
 8 Woods Hole, Martha's Vineyard and Nantucket Steamship … Ferr…            78.0
 9 MTA Long Island Rail Road                               Comm…            73.9
10 Peninsula Corridor Joint Powers Board                   Comm…            67.5
# ℹ 136 more rows
…
colnames(USAGE_AND_FINANCIALS)[colnames(USAGE_AND_FINANCIALS) == "Expenses"] <- "expense"

low_exp_vrm<- USAGE_AND_FINANCIALS |>
  filter(UPT >= 400000) |>
  mutate(exp_p_vrm = (expense/VRM)) |>
  group_by(Agency, Mode) |>
  summarize(low_exp_p_vrm = min(exp_p_vrm)) |> 
  arrange(low_exp_p_vrm) 

`summarise()` has grouped output by 'Agency'. You can override using the
`.groups` argument.

print(low_exp_vrm)

# A tibble: 146 × 3
# Groups:   Agency [112]
   Agency                                              Mode       low_exp_p_vrm
   <chr>                                               <chr>              <dbl>
 1 Interurban Transit Partnership                      Bus                 77.2
 2 City of El Paso                                     Bus                 85.8
 3 Des Moines Area Regional Transit Authority          Bus                 86.3
 4 Central Florida Regional Transportation Authority   Bus                 87.5
 5 San Francisco Bay Area Rapid Transit District       Heavy Rail          88.8
 6 Transportation District Commission of Hampton Roads Bus                 88.9
 7 City of Gainesville, FL                             Bus                 90.1
 8 Greater Lafayette Public Transportation Corporation Bus                 90.5
 9 Ames Transit Agency                                 Bus                 92.0
10 Delaware Transit Corporation                        Bus                 92.4
# ℹ 136 more rows
…
Which transit system (agency and mode) has the highest total fares per VRM?

high_fare_VRM <- USAGE_AND_FINANCIALS |>
  filter(UPT >= 400000) |>
  mutate(totalfares_p_vrm = (Total_Fares/VRM)) |>
  group_by(Agency, Mode) |>
  summarize(high_fare_p_vrm = max(totalfares_p_vrm)) |>
  arrange(desc(high_fare_p_vrm))

`summarise()` has grouped output by 'Agency'. You can override using the
`.groups` argument.

print(high_fare_VRM)

# A tibble: 146 × 3
# Groups:   Agency [112]
   Agency                                                  Mode  high_fare_p_vrm
   <chr>                                                   <chr>           <dbl>
 1 Washington State Ferries                                Ferr…          1120. 
 2 Woods Hole, Martha's Vineyard and Nantucket Steamship … Ferr…           829. 
 3 New York City Economic Development Corporation          Ferr…           188. 
 4 Anaheim Transportation Network                          Bus             170. 
 5 Massachusetts Bay Transportation Authority              Ligh…           131. 
 6 Port Authority Trans-Hudson Corporation                 Heav…           119. 
 7 Massachusetts Bay Transportation Authority              Heav…           101. 
 8 MTA Long Island Rail Road                               Comm…            98.6
 9 Metro-North Commuter Railroad Company, dba: MTA Metro-… Comm…            94.4
10 MTA New York City Transit                               Heav…            91.5
# ℹ 136 more rows
…
