mp02 – STA 9750 2024 Submission Material
…
Click here to see how this was done

twelve_episodes <- TITLE_EPISODES |> 
  filter(episodeNumber > 12)  

TVseries12 <- inner_join(twelve_episodes, TITLE_RATINGS, join_by(tconst))

seriesaverage <- TVseries12 |>
  group_by(parentTconst) |>
  summarize(average_score = mean(averageRating, na.rm = TRUE)) |>
  arrange(desc(average_score))

print(seriesaverage)

# A tibble: 1,024 × 2
   parentTconst average_score
   <chr>                <dbl>
 1 tt0170980              9.9
 2 tt0491739              9.9
 3 tt1134887              9.8
 4 tt3032476              9.8
 5 tt4158110              9.8
 6 tt0043192              9.7
 7 tt0061296              9.7
 8 tt0155428              9.7
 9 tt0840891              9.7
10 tt0870039              9.7
# ℹ 1,014 more rows
…
